…
```r
data
```

```
## # A tibble: 28,993 x 13
##    IncidntNum                    Category
##         <int>                       <chr>
##  1  140734311                       ARSON
##  2  140736317                NON-CRIMINAL
##  3  146177923               LARCENY/THEFT
##  4  146177531               LARCENY/THEFT
##  5  140734220                NON-CRIMINAL
##  6  140734349               DRUG/NARCOTIC
##  7  140734349               DRUG/NARCOTIC
##  8  140734349 DRIVING UNDER THE INFLUENCE
##  9  140738147              OTHER OFFENSES
## 10  140734258                    TRESPASS
## # ... with 28,983 more rows, and 11 more variables: Descript <chr>,
## #   DayOfWeek <chr>, Date <chr>, Time <time>, PdDistrict <chr>,
## #   Resolution <chr>, Address <chr>, X <dbl>, Y <dbl>, Location <chr>,
## #   PdId <dbl>
```
…
